{
  "name": "@coreui/coreui-free-angular-admin-template",
  "version": "2.9.5",
  "description": "CoreUI Free Angular 2+ Admin Template",
  "author": {
    "name": "Łukasz Holeczek",
    "url": "http://holeczek.pl",
    "github": "https://github.com/mrholek",
    "twitter": "https://twitter.com/lukaszholeczek"
  },
  "contributors": [
    {
      "name": "Andrzej Kopański",
      "url": "https://github.com/xidedix"
    }
  ],
  "homepage": "https://coreui.io/angular",
  "copyright": "Copyright 2020 creativeLabs Łukasz Holeczek",
  "license": "MIT",
  "scripts": {
    "ng": "ng",
    "postinstall": "ngcc --properties es2015 browser module main --first-only",
    "start": "ng serve",
    "build": "ng build --prod --aot --buildOptimizer --commonChunk --vendorChunk --optimization --progress",
    "test": "ng test",
    "lint": "ng lint",
    "e2e": "ng e2e"
  },
  "private": true,
  "dependencies": {
    "@angular/animations": "6.0.0",
    "@angular/cdk": "6.0.0",
    "@angular/common": "9.0.0",
    "@angular/compiler": "6.0.0",
    "@angular/core": "9.0.0",
    "@angular/forms": "6.0.0",
    "@angular/localize": "6.0.0",
    "@angular/material": "6.0.0",
    "@angular/platform-browser": "6.0.0",
    "@angular/platform-browser-dynamic": "6.0.0",
    "@angular/router": "6.0.0",
    "@coreui/angular": "1.0.0",
    "@coreui/coreui": "^2.1.16",
    "@coreui/coreui-plugin-chartjs-custom-tooltips": "^1.3.1",
    "@coreui/icons": "0.3.0",
    "@ngrx/entity": "6.0.0",
    "@ngrx/store": "6.0.0",
    "@ngrx/store-devtools": "v",
    "@progress/kendo-angular-buttons": "^5.0.0",
    "@progress/kendo-angular-common": "^1.0.0",
    "@progress/kendo-angular-dateinputs": "^4.0.0",
    "@progress/kendo-angular-dialog": "^4.2.3",
    "@progress/kendo-angular-dropdowns": "^4.0.0",
    "@progress/kendo-angular-excel-export": "^3.0.0",
    "@progress/kendo-angular-grid": "^4.8.4",
    "@progress/kendo-angular-inputs": "^6.0.0",
    "@progress/kendo-angular-intl": "^2.0.0",
    "@progress/kendo-angular-l10n": "^2.0.0",
    "@progress/kendo-angular-label": "^2.3.4",
    "@progress/kendo-angular-layout": "^5.1.0",
    "@progress/kendo-angular-listview": "^0.2.1",
    "@progress/kendo-angular-notification": "^2.1.3",
    "@progress/kendo-angular-pager": "^1.0.0",
    "@progress/kendo-angular-pdf-export": "^2.0.0",
    "@progress/kendo-angular-popup": "^3.0.0",
    "@progress/kendo-angular-progressbar": "^0.2.3",
    "@progress/kendo-angular-treeview": "^4.3.2",
    "@progress/kendo-angular-upload": "^6.1.0",
    "@progress/kendo-data-query": "^1.0.0",
    "@progress/kendo-drawing": "^1.0.0",
    "@progress/kendo-licensing": "^1.1.3",
    "@progress/kendo-theme-default": "^4.31.0",
    "@types/uuid": "^8.3.0",
    "add": "^2.0.6",
    "angular2-notifications": "6.0.0",
    "bootstrap": "^4.5.0",
    "chart.js": "^2.9.3",
    "core-js": "^3.6.5",
    "date-fns": "^2.16.1",
    "flag-icon-css": "^3.5.0",
    "font-awesome": "^4.7.0",
    "jwt-decode": "^3.1.2",
    "md5-typescript": "^1.0.5",
    "moment": "^2.27.0",
    "mutationobserver-shim": "^0.3.7",
    "ng-snotify": "6.0.0",
    "ng2-charts": "1.0.0",
    "ngx-bootstrap": "6.0.2",
    "ngx-perfect-scrollbar": "6.0.0",
    "ngx-spinner": "9.0.1",
    "ngx-whatsapp-button": "1.0.4",
    "or": "^0.2.0",
    "primeicons": "^4.1.0",
    "primeng": "^11.2.0",
    "rxjs": "^6.5.3",
    "simple-line-icons": "^2.5.2",
    "sweetalert2": "^10.12.5",
    "ts-helpers": "^1.1.2",
    "tslib": "1.10.0",
    "uuid": "^8.3.2",
    "web-animations-js": "^2.3.2",
    "yarn": "^1.22.10",
    "zone.js": "~0.10.2"
  },
  "devDependencies": {
    "@angular-devkit/build-angular": "^0.901.12",
    "@angular/cli": "^9.1.12",
    "@angular/compiler-cli": "^9.1.12",
    "@angular/language-service": "^9.1.12",
    "@types/jasmine": "^3.5.12",
    "@types/jasminewd2": "^2.0.8",
    "@types/node": "^13.13.14",
    "codelyzer": "^5.2.2",
    "jasmine-core": "^3.6.0",
    "jasmine-spec-reporter": "^5.0.2",
    "karma": "^5.1.1",
    "karma-chrome-launcher": "^3.1.0",
    "karma-coverage-istanbul-reporter": "^3.0.3",
    "karma-jasmine": "^3.3.1",
    "karma-jasmine-html-reporter": "^1.5.4",
    "protractor": "^7.0.0",
    "ts-node": "^8.10.2",
    "tslint": "^6.1.3",
    "typescript": "~3.6.0"
  },
  "engines": {
    "node": ">= 10.13",
    "npm": ">= 6"
  }
}